ANCOM-BC analysis on each phyloseq object in a list_phyloseq — ancombc_lpq • comparpq
…
#> Checking other arguments ...
#> The number of groups of interest is: 3
#> The sample size per group is: High = 28, Low = 26, Middle = 27
#> PASS
#> Warning: The number of taxa used for estimating sample-specific biases is: 33
#> A large number of taxa (>50) is required for the consistent estimation of biases
#> Obtaining initial estimates ...
#> Estimating sample-specific biases ...
#> ANCOM-BC2 primary results ...
#> Conducting sensitivity analysis for pseudo-count addition to 0s ...
#> For taxa that are significant but do not pass the sensitivity analysis,
#> they are marked in the 'passed_ss' column and will be treated as non-significant in the 'diff_robust' column.
#> For detailed instructions on performing sensitivity analysis, please refer to the package vignette.
results
#> # A tibble: 66 × 26
#>    name  taxon `lfc_(Intercept)` lfc_HeightLow lfc_HeightMiddle `se_(Intercept)`
#>    <chr> <chr>             <dbl>         <dbl>            <dbl>            <dbl>
#>  1 fungi ASV2             0.596        -0.105            -0.185            0.686
#>  2 fungi ASV6             1.56         -1.69             -1.12             0.518
#>  3 fungi ASV7             0.633        -0.709            -0.383            0.529
#>  4 fungi ASV8             0.0438       -0.148             1.87             0.728
#>  5 fungi ASV10            0.462        -0.936            -0.164            0.539
#>  6 fungi ASV12            0.0906       -0.0560           -0.240            0.647
#>  7 fungi ASV13           -0.544         0.497             0.708            0.601
#>  8 fungi ASV18           -0.108        -0.972            -0.200            0.524
#>  9 fungi ASV19            0.0388        1.46              1.28             0.470
#> 10 fungi ASV24           -2.89          3.76              0.458            0.516
#> # ℹ 56 more rows
#> # ℹ 20 more variables: se_HeightLow <dbl>, se_HeightMiddle <dbl>,
#> #   `W_(Intercept)` <dbl>, W_HeightLow <dbl>, W_HeightMiddle <dbl>,
#> #   `p_(Intercept)` <dbl>, p_HeightLow <dbl>, p_HeightMiddle <dbl>,
#> #   `q_(Intercept)` <dbl>, q_HeightLow <dbl>, q_HeightMiddle <dbl>,
#> #   `diff_(Intercept)` <lgl>, diff_HeightLow <lgl>, diff_HeightMiddle <lgl>,
#> #   `passed_ss_(Intercept)` <lgl>, passed_ss_HeightLow <lgl>, …
…
